<svg xmlns="http://www.w3.org/2000/svg" width="403.878" height="147.163" viewBox="0 0 403.878 147.163">
	<defs>
		<style>.a{fill:#fff;}.a,.b{stroke:#161615;stroke-miterlimit:10;stroke-width:5px;}.b{fill:none;}</style>
	</defs>
	<g transform="translate(-1281.13 -2048.5)">
		<g transform="translate(1173.016 1464.439)">
			<path class="a"
				  d="M452.26,681.628A35.338,35.338,0,0,1,487.6,646.291c.076,0,.15.005.226.005V586.561H110.614v97.922H452.385C452.309,683.54,452.26,682.591,452.26,681.628Z" />
			<circle class="a" cx="21.894" cy="21.894" r="21.894" transform="translate(465.704 659.735)" />
			<path class="b" d="M411.85,675.252v23.736l-10.094-7.9-10.094,7.9V675.252" transform="translate(85.894 27.106)" />
		</g>
		<path
			d="M60.049,9.421c-2.636,0-5.792.329-8.467.329H48.647a17.076,17.076,0,0,0-.425,2.731,16.234,16.234,0,0,1,3.36.783v19.2a15.736,15.736,0,0,1-3.363.8A16.669,16.669,0,0,0,48.646,36h2.936c3.084,0,6.069.188,7.708.188,9.5,0,15.025-6.489,15.025-14.784,0-7.823-4.916-11.983-14.267-11.983ZM59.9,31.845c-.7.007-1.95-.063-2.695-.1V14c.631-.053,2.248-.146,3.285-.127,4.841.089,7.91,2.6,7.91,8.029,0,5.8-3.51,9.886-8.5,9.943Zm27.231-14.97c-5.629,0-9.927,4.1-9.927,10.33,0,5.382,3.209,9.169,8.579,9.169,5.658,0,9.958-4.2,9.958-10.384C95.744,20.645,92.532,16.876,87.134,16.876Zm-.633,3.87c2.348,0,3.876,2.229,3.918,5.75.043,3.654-1.552,6.009-3.965,6.009-2.353,0-3.88-2.246-3.921-5.8C82.49,23.084,84.084,20.745,86.5,20.745Zm42.488-.764a17.126,17.126,0,0,0-.423-2.731h-8.1a16.679,16.679,0,0,0-.427,2.731,15.589,15.589,0,0,1,3.143.725,57.64,57.64,0,0,0-3.459,10.924c-.218-1.022-.565-2.567-.86-3.517l-3.151-11.128c-1.369.125-2.738.262-4.107.266h-3.144a16.67,16.67,0,0,0-.427,2.731,15.524,15.524,0,0,1,3.06.7,56.876,56.876,0,0,0-3.525,10.959c-.218-1.021-.566-2.571-.861-3.524l-3.16-11.156a41.385,41.385,0,0,1-4.145.293h-1.56a17.125,17.125,0,0,0-.423,2.731,9.234,9.234,0,0,1,1.993.435c.171.717.433,1.725.777,2.744l4.513,13.1A21.623,21.623,0,0,0,109.587,36l3.635-10.306,3.64,10.562A21.6,21.6,0,0,0,121.741,36l3.984-11.381c.58-1.7,1.067-3.3,1.342-4.224a9.415,9.415,0,0,1,1.923-.414ZM154.53,33.269a15.735,15.735,0,0,1-3.363-.8V23.25c0-3.975-1.5-6.375-4.923-6.375-3.141,0-5.678,2.026-7.168,5.3a25.786,25.786,0,0,0-1.13-5.3h-1.124a19.265,19.265,0,0,1-6.3,1.984,7.447,7.447,0,0,0,.431,2.8,15.965,15.965,0,0,0,2.829.087c.074,1.043.129,2.211.129,3.369v7.349a15.736,15.736,0,0,1-3.363.8A16.71,16.71,0,0,0,130.975,36h10.517a16.71,16.71,0,0,0,.427-2.731,15.22,15.22,0,0,1-2.682-.577V29.556c.01-4.783,2.007-8.3,4.544-8.3,1.485,0,2.063,1.186,2.063,3.36V36H154.1a16.669,16.669,0,0,0,.427-2.731Zm13.491,0a16.259,16.259,0,0,1-3.36-.783V7.875h-2.415a19.19,19.19,0,0,1-6.271,2.012,8.32,8.32,0,0,0,.431,2.775,15.526,15.526,0,0,0,2.929.077V32.468a15.735,15.735,0,0,1-3.363.8A16.679,16.679,0,0,0,156.4,36h11.2a17.129,17.129,0,0,0,.424-2.731Zm11.926-16.393c-5.629,0-9.927,4.1-9.927,10.33,0,5.382,3.209,9.169,8.579,9.169,5.658,0,9.958-4.2,9.958-10.384C188.557,20.645,185.345,16.876,179.947,16.876Zm-.633,3.87c2.348,0,3.876,2.229,3.918,5.75.043,3.654-1.552,6.009-3.965,6.009-2.353,0-3.88-2.246-3.921-5.8C175.3,23.084,176.9,20.745,179.314,20.745Zm31,10.842a15.7,15.7,0,0,0-2.958-.077h-.06l.289-7.063c.243-5.046-2.475-7.571-7.679-7.571a13.818,13.818,0,0,0-6.923,1.706V23.7a17.086,17.086,0,0,0,2.731.424,15.472,15.472,0,0,1,.555-2.647,5.373,5.373,0,0,1,2.758-.73c1.733,0,3.189.751,3.381,3.277l-2.145.552c-4.753,1.093-8.25,2.892-8.25,6.882a4.568,4.568,0,0,0,4.73,4.919,7.3,7.3,0,0,0,5.835-3.3,28.265,28.265,0,0,0,.743,3.3h1.124a19.256,19.256,0,0,1,6.3-1.984,7.45,7.45,0,0,0-.431-2.8Zm-11.29.916a1.822,1.822,0,0,1-2-1.923c0-1.534,1.35-2.219,3.6-2.794l1.715-.435-.028.836C202.174,30.573,201.045,32.5,199.029,32.5ZM233.344,31.5a15.913,15.913,0,0,0-2.848-.086c-.064-.831-.109-1.786-.109-2.829V7.875h-2.415A19.182,19.182,0,0,1,221.7,9.887a8.317,8.317,0,0,0,.431,2.775,15.464,15.464,0,0,0,2.929.077V17.13a14.2,14.2,0,0,0-2.711-.255c-4.617,0-9.693,4.011-9.693,10.992,0,5.228,2.289,8.509,6.1,8.509,2.938,0,5.126-1.89,6.511-4.616a23.27,23.27,0,0,0,1.082,4.518l1.128.007a19.256,19.256,0,0,1,6.3-1.984A7.458,7.458,0,0,0,233.344,31.5Zm-12.488.707c-1.948,0-2.857-1.923-2.857-4.85,0-4.626,2.174-6.819,4.987-6.819a7.52,7.52,0,0,1,2.075.332v2.792c0,5.612-1.968,8.545-4.2,8.545ZM243.494,9.75h-5.627l.736,17.479a7.794,7.794,0,0,0,4.154-.584Zm-2.84,21.392a2.617,2.617,0,1,0,2.651,2.617A2.576,2.576,0,0,0,240.654,31.142Z"
			transform="translate(1324 2075)" />
	</g>
</svg>
