<svg xmlns="http://www.w3.org/2000/svg" width="319.3" height="120.1" viewBox="0 0 319.3 120.1">
	<defs>
		<style>.a{fill:#161615;}</style>
	</defs>
	<path class="a"
		  d="M11.1,120.1,0,40.9,291.1,0l7.1,50.2-2.7.4a24.559,24.559,0,0,0-20.9,27.7h0c.1.6.2,1.2.4,2l.6,2.6ZM5.6,45.2l9.7,69.3L269.5,78.8a29.6,29.6,0,0,1,22.9-32.7L286.7,5.7Z" />
	<path class="a"
		  d="M48.2,69.9a6.07,6.07,0,0,1-1.8.5,18.029,18.029,0,0,0-.8-2.1l-4.6.6.7,4.7,4.4-.8a4.441,4.441,0,0,1,0,2.8l-4,.6.7,4.8c1,.2,2.2.1,3.1.2a3.454,3.454,0,0,1-.2,1.7l-2.7.4-3.7.5-1.9.3a6.07,6.07,0,0,1-.5-1.8,18.027,18.027,0,0,0,2.1-.8L37.2,68.8a19.525,19.525,0,0,0-2.3-.2,10.819,10.819,0,0,1,0-1.8L47.5,65l.4,2.9Z" />
	<path class="a"
		  d="M59.8,73.3a6.07,6.07,0,0,1-1.8.5,14.58,14.58,0,0,0-.7-1.9c-1.4.9-2,2.9-1.7,5.2l.3,2c1,.2,2.2.1,3.1.2a3.454,3.454,0,0,1-.2,1.7l-2.5.4-3.5.5-1.9.3a6.07,6.07,0,0,1-.5-1.8,18.027,18.027,0,0,0,2.1-.8l-.7-4.9c-.1-.8-.3-1.5-.4-2.2a12.252,12.252,0,0,1-1.9.2,3.453,3.453,0,0,1-.5-1.8A13.3,13.3,0,0,0,53,69l.7-.1a22.827,22.827,0,0,1,1.4,3.8c.5-2.6,1.9-4.3,4.3-4.6l.3,3.2Z" />
	<path class="a"
		  d="M72.7,72.9l-7.4,1.3c.6,2.3,2.1,3.2,3.9,3a5.3,5.3,0,0,0,3-1.6c.6.2.8.9.9,1.7A6.536,6.536,0,0,1,68.5,80c-3.5.5-6.1-1.6-6.6-5.4-.6-4,1.5-7,5.1-7.5C70,66.6,72.7,68.3,72.7,72.9Zm-7.5-.7,4.2-.7c-.3-1.4-.9-2.3-2.2-2.1C65.8,69.5,65.2,70.7,65.2,72.2Z" />
	<path class="a"
		  d="M90.6,75.5a13.3,13.3,0,0,0-4,1.9l-.7.1A17.013,17.013,0,0,1,84.6,74c-.7,2.3-2.1,4-4.2,4.2-2.3.3-3.5-1.1-3.9-3.7l-.8-5.4a13.665,13.665,0,0,1-1.9.2,4.075,4.075,0,0,1-.5-1.8,14.539,14.539,0,0,0,4-1.9l1.6-.2v.2L80,73.1c.2,1.4.7,2.2,1.7,2,1.6-.2,2.6-3,2.2-6.2l-.3-.9a13.665,13.665,0,0,1-1.9.2,4.075,4.075,0,0,1-.5-1.8,14.539,14.539,0,0,0,4-1.9l1.6-.2L87.9,72a9.022,9.022,0,0,0,.4,1.9,12.253,12.253,0,0,1,1.9-.2C90.3,74.1,90.5,74.9,90.6,75.5Z" />
	<path class="a"
		  d="M107.5,72.4a10.819,10.819,0,0,1,0,1.8l-1.9.3-3.5.5L101,67.5c-.2-1.4-.7-2.2-1.7-2-1.7.2-2.7,2.7-2.2,5.9l.3,2.1a10.869,10.869,0,0,0,1.8.1,10.819,10.819,0,0,1,0,1.8l-1.5.2-3.5.5-1.9.3a6.07,6.07,0,0,1-.5-1.8,18.027,18.027,0,0,0,2.1-.8l-.7-4.9c-.1-.8-.3-1.5-.4-2.2a12.253,12.253,0,0,1-1.9.2,3.453,3.453,0,0,1-.5-1.8,13.3,13.3,0,0,0,4-1.9l.7-.1a18.3,18.3,0,0,1,1.2,3.4c.7-2.3,2.2-3.9,4.2-4.2,2.3-.3,3.5,1.1,3.8,3.8l.9,6.1a19.524,19.524,0,0,0,2.3.2Z" />
	<path class="a"
		  d="M122.9,70.9a13.3,13.3,0,0,0-4,1.9l-.7.1a11.614,11.614,0,0,1-1.1-2.9c-.7,1.9-1.9,3.4-3.9,3.7-2.5.4-4.3-1.6-4.8-5-.6-4.6,2.3-7.7,5.4-8.2a12.134,12.134,0,0,1,1.8-.1l-.4-2.9a13.665,13.665,0,0,1-1.9.2,4.075,4.075,0,0,1-.5-1.8,14.539,14.539,0,0,0,4-1.9l1.6-.2,1.9,13.7c.1.7.2,1.3.3,1.9a12.253,12.253,0,0,1,1.9-.2A14.579,14.579,0,0,1,122.9,70.9Zm-8.8-.2c1.5-.2,2.5-2.3,2-6l-.3-1.8a3.3,3.3,0,0,0-1.4,0c-1.9.3-3.1,1.9-2.7,5,.4,1.8,1.2,3,2.4,2.8Z" />
	<path class="a"
		  d="M134.4,64.3,127,65.6c.6,2.3,2.1,3.2,3.9,3a5.3,5.3,0,0,0,3-1.6c.6.2.8.9.9,1.7a6.536,6.536,0,0,1-4.6,2.7c-3.5.5-6.1-1.6-6.6-5.4-.6-4,1.5-7,5.1-7.5C131.7,58,134.4,59.6,134.4,64.3Zm-7.6-.7,4.2-.7c-.3-1.4-.9-2.3-2.2-2.1C127.5,60.9,126.8,62,126.8,63.6Z" />
	<path class="a"
		  d="M154.7,65.8a10.818,10.818,0,0,1,0,1.8l-1.9.3-3.1.4a34.18,34.18,0,0,1-5.3-6.2L142.5,65l.3,2a6.079,6.079,0,0,0,1.9.1,10.818,10.818,0,0,1,0,1.8l-1.9.3-3.4.5-1.9.3a6.07,6.07,0,0,1-.5-1.8,18.028,18.028,0,0,0,2.1-.8l-1.8-12.7a19.526,19.526,0,0,0-2.3-.2,10.818,10.818,0,0,1,0-1.8l1.9-.3,3.7-.5,1.7-.2a6.07,6.07,0,0,1,.5,1.8c-.6.2-1.3.4-2,.7l1,7,5.1-8a12.1,12.1,0,0,0-1.9-.1,10.818,10.818,0,0,1,0-1.8l2-.3,3.6-.5.8-.1a6.07,6.07,0,0,1,.5,1.8,5.228,5.228,0,0,0-1.6.6l-3.9,6a24.192,24.192,0,0,0,6.2,6.9C153.4,65.7,154.1,65.8,154.7,65.8Z" />
	<path class="a"
		  d="M163.6,66.3l-1.9.3-3.5.5-1.9.3a6.07,6.07,0,0,1-.5-1.8,18.028,18.028,0,0,0,2.1-.8l-1.8-13a13.665,13.665,0,0,1-1.9.2,4.075,4.075,0,0,1-.5-1.8,14.539,14.539,0,0,0,4-1.9l1.6-.2,2.3,16.2a19.526,19.526,0,0,0,2.3.2Z" />
	<path class="a"
		  d="M170.6,63a19.526,19.526,0,0,0,2.3.2,10.818,10.818,0,0,1,0,1.8l-5.5.8-1.9.3a6.07,6.07,0,0,1-.5-1.8,18.029,18.029,0,0,0,2.1-.8l-1-7a13.665,13.665,0,0,1-1.9.2,4.075,4.075,0,0,1-.5-1.8,14.539,14.539,0,0,0,4-1.9l1.6-.2V53Zm-6.1-13.8a1.89,1.89,0,0,1,1.8-2.2,2.026,2.026,0,0,1,2.3,1.6,2.078,2.078,0,0,1-4.1.6Z" />
	<path class="a"
		  d="M195.1,59.6a19.526,19.526,0,0,0,2.3.2,10.818,10.818,0,0,1,0,1.8l-1.9.3-3.5.5-1.1-7.5c-.2-1.4-.7-2.2-1.6-2-1.6.2-2.5,2.7-2.1,5.9l.3,2a14.919,14.919,0,0,0,2.1.2,10.818,10.818,0,0,1,0,1.8l-1.8.2-3.5.5L183.2,56c-.2-1.4-.7-2.2-1.6-2-1.6.2-2.5,2.7-2.1,5.9l.3,2a14.919,14.919,0,0,0,2.1.2,10.818,10.818,0,0,1,0,1.8l-1.9.3-3.3.5-1.9.3a6.07,6.07,0,0,1-.5-1.8,18.03,18.03,0,0,0,2.1-.8l-.7-4.9c-.1-.8-.3-1.5-.4-2.2a12.253,12.253,0,0,1-1.9.2,3.453,3.453,0,0,1-.5-1.8,13.3,13.3,0,0,0,4-1.9l.7-.1a18.3,18.3,0,0,1,1.2,3.4c.7-2.3,2.1-3.8,4.1-4.1,1.9-.3,3.1.8,3.6,2.9.7-2.2,2.1-3.7,4.1-4,2.2-.3,3.4,1.1,3.8,3.8Z" />
	<path class="a"
		  d="M210.9,56.7a3.453,3.453,0,0,1,.5,1.8,13.3,13.3,0,0,0-4,1.9l-.7.1a18.028,18.028,0,0,1-.8-2.1,4.8,4.8,0,0,1-3.5,2.7,3,3,0,0,1-3.6-2.8c-.4-2.6,1.8-4.1,4.8-5.3l1.4-.6a2.027,2.027,0,0,0-2.5-1.8,4.242,4.242,0,0,0-1.8.7,10.868,10.868,0,0,0-.1,1.8,10.819,10.819,0,0,1-1.8,0l-.3-1.9-.2-1.4a9.062,9.062,0,0,1,4.4-1.8c3.4-.5,5.5.9,5.8,4.3L209,57h0a5.822,5.822,0,0,1,1.9-.3Zm-5.6-1.5-.1-.6-1.1.4c-1.4.6-2.3,1.2-2.1,2.2a1.226,1.226,0,0,0,1.5,1.1C204.8,58.2,205.4,56.8,205.3,55.2Z" />
	<path class="a"
		  d="M217.7,51.8l.6,4.5c1,.2,2.2.1,3.1.2a3.454,3.454,0,0,1-.2,1.7l-6.3.9-1.9.3a6.07,6.07,0,0,1-.5-1.8,18.03,18.03,0,0,0,2.1-.8l-1.8-12.7a17.853,17.853,0,0,0-2.3-.2,10.818,10.818,0,0,1,0-1.8l1.9-.3c1.1-.2,3.1-.7,4.8-.9,4.7-.7,7.6.5,8.1,3.9.5,3.9-2.6,6.3-6.4,6.9A5.74,5.74,0,0,1,217.7,51.8Zm-1.3-7.7.7,5.1a9.634,9.634,0,0,0,1.7,0c2-.3,3.3-1.5,3.1-3.4-.2-1.6-1.6-2.4-3.8-2.1A14.679,14.679,0,0,0,216.4,44.1Z" />
	<path class="a"
		  d="M240.2,52.6a3.453,3.453,0,0,1,.5,1.8,13.3,13.3,0,0,0-4,1.9l-.7.1a18.028,18.028,0,0,1-.8-2.1,4.8,4.8,0,0,1-3.5,2.7,3,3,0,0,1-3.6-2.8c-.4-2.6,1.8-4.1,4.8-5.3l1.4-.6a2.027,2.027,0,0,0-2.5-1.8,4.242,4.242,0,0,0-1.8.7,10.868,10.868,0,0,0-.1,1.8,10.819,10.819,0,0,1-1.8,0l-.3-1.9-.2-1.4a9.062,9.062,0,0,1,4.4-1.8c3.4-.5,5.5.9,5.8,4.3l.5,4.7h0a5.823,5.823,0,0,1,1.9-.3Zm-5.6-1.5-.1-.6-1.1.4c-1.4.6-2.3,1.2-2.1,2.2a1.226,1.226,0,0,0,1.5,1.1C234.2,54.1,234.8,52.7,234.6,51.1Z" />
	<path class="a"
		  d="M256.8,53.2l-.8.1c-1.3.2-2.4.4-3.7.7a15.629,15.629,0,0,1-3.7-5.6L247,49.8l.4,2.5a10.284,10.284,0,0,0,1.7.1,10.818,10.818,0,0,1,0,1.8l-1.4.2-3.5.5-1.9.3a6.07,6.07,0,0,1-.5-1.8,18.03,18.03,0,0,0,2.1-.8l-1.8-13a13.665,13.665,0,0,1-1.9.2,4.075,4.075,0,0,1-.5-1.8,14.539,14.539,0,0,0,4-1.9L245,36l1.6,11.6,1.5-1.1,2-2.7a10.869,10.869,0,0,0-1.8-.1,10.818,10.818,0,0,1,0-1.8l1.9-.3,2.4-.3,1.9-.3a6.07,6.07,0,0,1,.5,1.8,14.579,14.579,0,0,0-1.9.7L250.5,47a21.613,21.613,0,0,0,4.1,4.4,6.729,6.729,0,0,0,2,.1A3.21,3.21,0,0,1,256.8,53.2Z" />
	<path class="a"
		  d="M266.7,50.8a5.137,5.137,0,0,1-3,1.7c-2.1.3-3.9-.8-4.3-3.4l-.9-6.4a12.1,12.1,0,0,1-1.9.1A12.664,12.664,0,0,1,256,41a14.274,14.274,0,0,0,2.2-.8,13.06,13.06,0,0,0,.3-3.3,20.344,20.344,0,0,0,2.6-.9l.5,3.9,3.1-.3a3.034,3.034,0,0,1,0,2.1l-2.8.5.9,6.4a1.128,1.128,0,0,0,1.4,1.1,3.326,3.326,0,0,0,1.4-.7C266.4,49.3,266.6,49.9,266.7,50.8Z" />
	<path
		d="M319.3,75a19.3,19.3,0,1,0-38.6,0,19.066,19.066,0,0,0,9.1,16.3v22.9l10.2-8,10.2,8V91.3A19.066,19.066,0,0,0,319.3,75Zm-33.6,0A14.3,14.3,0,1,1,300,89.3,14.3,14.3,0,0,1,285.7,75Zm19.6,29-5.2-4.1-5.2,4.1V93.6a18.128,18.128,0,0,0,5.2.7,18.9,18.9,0,0,0,5.3-.8V104Z" />
</svg>
