<svg xmlns="http://www.w3.org/2000/svg" width="173.957" height="203.111" viewBox="0 0 173.957 203.111">
	<defs>
		<style>.a{font-size:25px;font-family:Clavo-Regular, Clavo;}.b{fill:none;stroke:#000;stroke-width:5px;}</style>
	</defs>
	<g transform="translate(-824 -898.444)">
		<text class="a" transform="translate(824 966)">
			<tspan x="0" y="24">scroll!</tspan>
		</text>
		<line class="b" x1="159" y2="200" transform="translate(837 900)" />
	</g>
</svg>
