<svg xmlns="http://www.w3.org/2000/svg" width="162.914" height="203.111" viewBox="0 0 162.914 203.111">
	<defs>
		<style>.a{fill:none;stroke:#000;stroke-width:5px;}</style>
	</defs>
	<line class="a" x2="159" y2="200" transform="translate(1.957 1.556)" />
</svg>
