<svg xmlns="http://www.w3.org/2000/svg" width="56.517" height="3.5" viewBox="0 0 56.517 3.5">
    <defs>
        <style>.a{fill:none;stroke:#000;stroke-width:3.5px;}</style>
    </defs>
    <g transform="translate(1038.017 1173.643) rotate(180)">
        <line class="a" x2="56.517" transform="translate(981.5 1171.893)"/>
    </g>
</svg>